%YAML 1.1
%TAG !u! tag:unity3d.com,2011:
--- !u!114 &-558041384483346420
MonoBehaviour:
  m_ObjectHideFlags: 11
  m_CorrespondingSourceObject: {fileID: 0}
  m_PrefabInstance: {fileID: 0}
  m_PrefabAsset: {fileID: 0}
  m_GameObject: {fileID: 0}
  m_Enabled: 1
  m_EditorHideFlags: 0
  m_Script: {fileID: 11500000, guid: d0353a89b1f911e48b9e16bdc9f2e058, type: 3}
  m_Name: 
  m_EditorClassIdentifier: 
  version: 4
--- !u!21 &2100000
Material:
  serializedVersion: 6
  m_ObjectHideFlags: 0
  m_CorrespondingSourceObject: {fileID: 0}
  m_PrefabInstance: {fileID: 0}
  m_PrefabAsset: {fileID: 0}
  m_Name: Rune_CrystalBomb_Highlights
  m_Shader: {fileID: -6465566751694194690, guid: e045e1235ba39a9469f1589bb3d00d09, type: 3}
  m_ShaderKeywords: _EMISSION
  m_LightmapFlags: 2
  m_EnableInstancingVariants: 0
  m_DoubleSidedGI: 0
  m_CustomRenderQueue: -1
  stringTagMap: {}
  disabledShaderPasses:
  - SHADOWCASTER
  m_SavedProperties:
    serializedVersion: 3
    m_TexEnvs:
    - Texture2D_2a7e6bb889e046908d598d9d9593e843:
        m_Texture: {fileID: 0}
        m_Scale: {x: 1, y: 1}
        m_Offset: {x: 0, y: 0}
    - Texture2D_dc8d4f595ef443dc843f8356b061c46e:
        m_Texture: {fileID: 2800000, guid: dc086d6ef6f1af24bb678d96ff2ab56e, type: 3}
        m_Scale: {x: 1, y: 1}
        m_Offset: {x: 0, y: 0}
    - _BaseMap:
        m_Texture: {fileID: 2800000, guid: f092404d015eddf43aab4139e4515434, type: 3}
        m_Scale: {x: 1, y: 1}
        m_Offset: {x: 0, y: 0}
    - _BumpMap:
        m_Texture: {fileID: 0}
        m_Scale: {x: 1, y: 1}
        m_Offset: {x: 0, y: 0}
    - _Color_Texture:
        m_Texture: {fileID: 2800000, guid: 2897a4dfad43c5244ab58126c1e3d0dc, type: 3}
        m_Scale: {x: 1, y: 1}
        m_Offset: {x: 0, y: 0}
    - _DetailAlbedoMap:
        m_Texture: {fileID: 0}
        m_Scale: {x: 1, y: 1}
        m_Offset: {x: 0, y: 0}
    - _DetailMask:
        m_Texture: {fileID: 0}
        m_Scale: {x: 1, y: 1}
        m_Offset: {x: 0, y: 0}
    - _DetailNormalMap:
        m_Texture: {fileID: 0}
        m_Scale: {x: 1, y: 1}
        m_Offset: {x: 0, y: 0}
    - _Dissolve_Texture:
        m_Texture: {fileID: 2800000, guid: d58cfd6982f94f644a5409d51b82dc05, type: 3}
        m_Scale: {x: 1, y: 1}
        m_Offset: {x: 0, y: 0}
    - _EmissionMap:
        m_Texture: {fileID: 2800000, guid: f092404d015eddf43aab4139e4515434, type: 3}
        m_Scale: {x: 1, y: 1}
        m_Offset: {x: 0, y: 0}
    - _MainTex:
        m_Texture: {fileID: 0}
        m_Scale: {x: 1, y: 1}
        m_Offset: {x: 0, y: 0}
    - _MetallicGlossMap:
        m_Texture: {fileID: 0}
        m_Scale: {x: 1, y: 1}
        m_Offset: {x: 0, y: 0}
    - _OcclusionMap:
        m_Texture: {fileID: 0}
        m_Scale: {x: 1, y: 1}
        m_Offset: {x: 0, y: 0}
    - _ParallaxMap:
        m_Texture: {fileID: 0}
        m_Scale: {x: 1, y: 1}
        m_Offset: {x: 0, y: 0}
    - _SpecGlossMap:
        m_Texture: {fileID: 0}
        m_Scale: {x: 1, y: 1}
        m_Offset: {x: 0, y: 0}
    - unity_Lightmaps:
        m_Texture: {fileID: 0}
        m_Scale: {x: 1, y: 1}
        m_Offset: {x: 0, y: 0}
    - unity_LightmapsInd:
        m_Texture: {fileID: 0}
        m_Scale: {x: 1, y: 1}
        m_Offset: {x: 0, y: 0}
    - unity_ShadowMasks:
        m_Texture: {fileID: 0}
        m_Scale: {x: 1, y: 1}
        m_Offset: {x: 0, y: 0}
    m_Floats:
    - Boolean_1f9f4743b3774d8b98693f5b9df33089: 0
    - Boolean_c187c025292a4075813e39ac40037d8e: 1
    - Boolean_ed7999e02f0243458475dc6f0c9863b2: 0
    - Boolean_ed7999e02f0243458475dc6f0c9863b2_1: 0
    - Vector1_1: 0.397
    - Vector1_2: 0.573
    - Vector1_3: 0.797
    - Vector1_4: 1
    - Vector1_4aab4cf8a5b14ce0ab916f8e89f8010c: 0
    - Vector1_4df32703bae0444cb1c208585c79d26f: 0
    - Vector1_8e16a33884d64ba8bac719b6292ab564: 30
    - Vector1_9e6fb45874a944279788dd34688ba4b3: 0
    - Vector1_a06c3c2c65cb4889b9b1a82385e3559a: 2
    - Vector1_a4e3f625990a4483ba6e082e73fe784c: 1
    - Vector1_b0c072ca3098448393b0aa32f3f3cd93: 0
    - Vector1_b1ea075a03434259b54e2cd2b89c8565: 0
    - _AlphaClip: 0
    - _Blend: 2
    - _BlendOp: 0
    - _BumpScale: 1
    - _CameraFadingEnabled: 0
    - _CameraFarFadeDistance: 2
    - _CameraNearFadeDistance: 1
    - _ClearCoatMask: 0
    - _ClearCoatSmoothness: 0
    - _ColorMode: 0
    - _Cull: 2
    - _Cutoff: 0.054
    - _DetailAlbedoMapScale: 1
    - _DetailNormalMapScale: 1
    - _Dissolve: 0
    - _DistortionBlend: 0.5
    - _DistortionEnabled: 0
    - _DistortionStrength: 1
    - _DistortionStrengthScaled: 0.1
    - _DstBlend: 1
    - _EnvironmentReflections: 1
    - _FlipbookBlending: 0
    - _FlipbookMode: 0
    - _GlossMapScale: 0
    - _Glossiness: 0
    - _GlossyReflections: 0
    - _Metallic: 0
    - _Mode: 0
    - _OcclusionStrength: 1
    - _Parallax: 0.005
    - _QueueOffset: 0
    - _Radial_Fade: 1
    - _Radial_Fade_Smoothness: 0.1
    - _ReceiveShadows: 1
    - _Smoothness: 0.5
    - _SmoothnessTextureChannel: 0
    - _SoftParticlesEnabled: 0
    - _SoftParticlesFarFadeDistance: 1
    - _SoftParticlesNearFadeDistance: 0
    - _SpecularHighlights: 1
    - _SrcBlend: 5
    - _Surface: 1
    - _Twirl_Strength: 0
    - _WorkflowMode: 1
    - _ZWrite: 0
    m_Colors:
    - Color_1: {r: 2.6415098, g: 0.04148968, b: 0, a: 0}
    - Color_2: {r: 5.3136725, g: 0.63986635, b: 0, a: 0}
    - Color_3: {r: 7.999999, g: 1.2565444, b: 0, a: 0}
    - Color_30ca7306e1e4421eb07f7e0e484e739d: {r: 0.12156863, g: 0, b: 0, a: 0}
    - Color_4: {r: 68.247696, g: 23.582975, b: 9.64758, a: 0}
    - Color_908e940ef01a4f93bfadfc80bb39c085: {r: 1, g: 1, b: 1, a: 0}
    - Vector2_2ef467a8038c411f8c95205824d36e96: {r: 1, g: 1, b: 0, a: 0}
    - Vector2_3db9e5b3398746f995b7ad4539fdafe0: {r: 0, g: 0.01, b: 0, a: 0}
    - Vector2_5a31b4cfcd5b4a9f998cddb7435d0d3e: {r: 1, g: 1, b: 0, a: 0}
    - Vector2_996920c7e22643c7ba4ae0a603de9d29: {r: 0, g: 0, b: 0, a: 0}
    - Vector2_edc57756b021423c8d4b217cbb428c30: {r: 0, g: 0, b: 0, a: 0}
    - _BaseColor: {r: 1, g: 0.5481836, b: 0, a: 1}
    - _BaseColorAddSubDiff: {r: 1, g: 0, b: 0, a: 0}
    - _CameraFadeParams: {r: 0, g: Infinity, b: 0, a: 0}
    - _Color: {r: 31.999996, g: 7.1258874, b: 1.675392, a: 1}
    - _EmissionColor: {r: 8.376962, g: 1.6227623, b: 0.2192922, a: 1}
    - _SoftParticleFadeParams: {r: 0, g: 0, b: 0, a: 0}
    - _SpecColor: {r: 0.19999996, g: 0.19999996, b: 0.19999996, a: 1}
  m_BuildTextureStacks: []
