%YAML 1.1
%TAG !u! tag:unity3d.com,2011:
--- !u!64 &5525546799424916945
MeshCollider:
  m_ObjectHideFlags: 0
  m_CorrespondingSourceObject: {fileID: 0}
  m_PrefabInstance: {fileID: 0}
  m_PrefabAsset: {fileID: 0}
  m_GameObject: {fileID: 1939846441960461868}
  m_Material: {fileID: 0}
  m_IsTrigger: 0
  m_Enabled: 1
  serializedVersion: 4
  m_Convex: 0
  m_CookingOptions: 30
  m_Mesh: {fileID: -5495902117074765545, guid: 2b4b2684e21c41349a6fdd20e91dfcd0, type: 3}
--- !u!114 &1864581637830205020
MonoBehaviour:
  m_ObjectHideFlags: 0
  m_CorrespondingSourceObject: {fileID: 0}
  m_PrefabInstance: {fileID: 0}
  m_PrefabAsset: {fileID: 0}
  m_GameObject: {fileID: 1939846441960461868}
  m_Enabled: 1
  m_EditorHideFlags: 0
  m_Script: {fileID: 11500000, guid: 8e5aa52ab8d6c584999e4ce3d9a199c6, type: 3}
  m_Name: 
  m_EditorClassIdentifier: 
--- !u!1001 &1597319770608692093
PrefabInstance:
  m_ObjectHideFlags: 0
  serializedVersion: 2
  m_Modification:
    m_TransformParent: {fileID: 0}
    m_Modifications:
    - target: {fileID: -8679921383154817045, guid: 2b4b2684e21c41349a6fdd20e91dfcd0, type: 3}
      propertyPath: m_RootOrder
      value: 0
      objectReference: {fileID: 0}
    - target: {fileID: -8679921383154817045, guid: 2b4b2684e21c41349a6fdd20e91dfcd0, type: 3}
      propertyPath: m_LocalPosition.x
      value: 25.097343
      objectReference: {fileID: 0}
    - target: {fileID: -8679921383154817045, guid: 2b4b2684e21c41349a6fdd20e91dfcd0, type: 3}
      propertyPath: m_LocalPosition.y
      value: 12.867434
      objectReference: {fileID: 0}
    - target: {fileID: -8679921383154817045, guid: 2b4b2684e21c41349a6fdd20e91dfcd0, type: 3}
      propertyPath: m_LocalPosition.z
      value: -48.50272
      objectReference: {fileID: 0}
    - target: {fileID: -8679921383154817045, guid: 2b4b2684e21c41349a6fdd20e91dfcd0, type: 3}
      propertyPath: m_LocalRotation.w
      value: 1
      objectReference: {fileID: 0}
    - target: {fileID: -8679921383154817045, guid: 2b4b2684e21c41349a6fdd20e91dfcd0, type: 3}
      propertyPath: m_LocalRotation.x
      value: 0
      objectReference: {fileID: 0}
    - target: {fileID: -8679921383154817045, guid: 2b4b2684e21c41349a6fdd20e91dfcd0, type: 3}
      propertyPath: m_LocalRotation.y
      value: 0
      objectReference: {fileID: 0}
    - target: {fileID: -8679921383154817045, guid: 2b4b2684e21c41349a6fdd20e91dfcd0, type: 3}
      propertyPath: m_LocalRotation.z
      value: 0
      objectReference: {fileID: 0}
    - target: {fileID: -8679921383154817045, guid: 2b4b2684e21c41349a6fdd20e91dfcd0, type: 3}
      propertyPath: m_LocalEulerAnglesHint.x
      value: 0
      objectReference: {fileID: 0}
    - target: {fileID: -8679921383154817045, guid: 2b4b2684e21c41349a6fdd20e91dfcd0, type: 3}
      propertyPath: m_LocalEulerAnglesHint.y
      value: 0
      objectReference: {fileID: 0}
    - target: {fileID: -8679921383154817045, guid: 2b4b2684e21c41349a6fdd20e91dfcd0, type: 3}
      propertyPath: m_LocalEulerAnglesHint.z
      value: 0
      objectReference: {fileID: 0}
    - target: {fileID: -7511558181221131132, guid: 2b4b2684e21c41349a6fdd20e91dfcd0, type: 3}
      propertyPath: m_Materials.Array.size
      value: 2
      objectReference: {fileID: 0}
    - target: {fileID: -7511558181221131132, guid: 2b4b2684e21c41349a6fdd20e91dfcd0, type: 3}
      propertyPath: m_Materials.Array.data[0]
      value: 
      objectReference: {fileID: 2100000, guid: 8224cd5cba7f3bc469f48a257b5ff151, type: 2}
    - target: {fileID: -7511558181221131132, guid: 2b4b2684e21c41349a6fdd20e91dfcd0, type: 3}
      propertyPath: m_Materials.Array.data[1]
      value: 
      objectReference: {fileID: 2100000, guid: f9eb7d3b8ca0be24f8194caf557e1851, type: 2}
    - target: {fileID: -7511558181221131132, guid: 2b4b2684e21c41349a6fdd20e91dfcd0, type: 3}
      propertyPath: m_SelectedEditorRenderState
      value: 2
      objectReference: {fileID: 0}
    - target: {fileID: 919132149155446097, guid: 2b4b2684e21c41349a6fdd20e91dfcd0, type: 3}
      propertyPath: m_Name
      value: Cube
      objectReference: {fileID: 0}
    - target: {fileID: 919132149155446097, guid: 2b4b2684e21c41349a6fdd20e91dfcd0, type: 3}
      propertyPath: m_StaticEditorFlags
      value: 123
      objectReference: {fileID: 0}
    m_RemovedComponents: []
  m_SourcePrefab: {fileID: 100100000, guid: 2b4b2684e21c41349a6fdd20e91dfcd0, type: 3}
--- !u!1 &1939846441960461868 stripped
GameObject:
  m_CorrespondingSourceObject: {fileID: 919132149155446097, guid: 2b4b2684e21c41349a6fdd20e91dfcd0, type: 3}
  m_PrefabInstance: {fileID: 1597319770608692093}
  m_PrefabAsset: {fileID: 0}
