%YAML 1.1
%TAG !u! tag:unity3d.com,2011:
--- !u!21 &2100000
Material:
  serializedVersion: 6
  m_ObjectHideFlags: 0
  m_CorrespondingSourceObject: {fileID: 0}
  m_PrefabInstance: {fileID: 0}
  m_PrefabAsset: {fileID: 0}
  m_Name: M_Stairs_01
  m_Shader: {fileID: -6465566751694194690, guid: 234af0c91db5f9444876b70c5e090d15, type: 3}
  m_ShaderKeywords: 
  m_LightmapFlags: 4
  m_EnableInstancingVariants: 0
  m_DoubleSidedGI: 0
  m_CustomRenderQueue: -1
  stringTagMap: {}
  disabledShaderPasses: []
  m_SavedProperties:
    serializedVersion: 3
    m_TexEnvs:
    - Texture2D_01536b400ba24eb795985e6da68a7981:
        m_Texture: {fileID: 2800000, guid: 2e487767931b1774cb90a64e76ef4730, type: 3}
        m_Scale: {x: 1, y: 1}
        m_Offset: {x: 0, y: 0}
    - Texture2D_3bb298db53114168873eb5c470b8aceb:
        m_Texture: {fileID: 2800000, guid: 0f8a14646d6487e43b263534687e3ac2, type: 3}
        m_Scale: {x: 1, y: 1}
        m_Offset: {x: 0, y: 0}
    - Texture2D_6c0a24166bd0401781c8e10c24692e77:
        m_Texture: {fileID: 2800000, guid: 0c1d0dac3d041354d99ff32a10b62deb, type: 3}
        m_Scale: {x: 1, y: 1}
        m_Offset: {x: 0, y: 0}
    - Texture2D_d62c15bd926c406c880139272c519e5f:
        m_Texture: {fileID: 2800000, guid: 34873e4ef49440d42be2122738ff6089, type: 3}
        m_Scale: {x: 1, y: 1}
        m_Offset: {x: 0, y: 0}
    - _Albedo:
        m_Texture: {fileID: 2800000, guid: 7879c735edfe9214ab0d440292eea017, type: 3}
        m_Scale: {x: 1, y: 1}
        m_Offset: {x: 0, y: 0}
    - _Emmision:
        m_Texture: {fileID: 0}
        m_Scale: {x: 1, y: 1}
        m_Offset: {x: 0, y: 0}
    - _MSAOH:
        m_Texture: {fileID: 2800000, guid: 7f6ece9bba6f33c4eb9b8acb1daffd91, type: 3}
        m_Scale: {x: 1, y: 1}
        m_Offset: {x: 0, y: 0}
    - _Normal:
        m_Texture: {fileID: 2800000, guid: 8d4b2d07c7da0c04cb284bdc29e1c5fc, type: 3}
        m_Scale: {x: 1, y: 1}
        m_Offset: {x: 0, y: 0}
    - _SampleTexture2D_3af14307cfb749338b44da4a98e609cf_Texture_1:
        m_Texture: {fileID: 2800000, guid: 34873e4ef49440d42be2122738ff6089, type: 3}
        m_Scale: {x: 1, y: 1}
        m_Offset: {x: 0, y: 0}
    - _SampleTexture2D_51d9b5926c904d3f864b965ec231c939_Texture_1:
        m_Texture: {fileID: 2800000, guid: 0f8a14646d6487e43b263534687e3ac2, type: 3}
        m_Scale: {x: 1, y: 1}
        m_Offset: {x: 0, y: 0}
    - _SampleTexture2D_7649b651761a475c9727ad0e24ce87be_Texture_1:
        m_Texture: {fileID: 2800000, guid: 2e487767931b1774cb90a64e76ef4730, type: 3}
        m_Scale: {x: 1, y: 1}
        m_Offset: {x: 0, y: 0}
    - _SampleTexture2D_89a797c74fd042be94e5ef607113b875_Texture_1:
        m_Texture: {fileID: 2800000, guid: 0c1d0dac3d041354d99ff32a10b62deb, type: 3}
        m_Scale: {x: 1, y: 1}
        m_Offset: {x: 0, y: 0}
    - unity_Lightmaps:
        m_Texture: {fileID: 0}
        m_Scale: {x: 1, y: 1}
        m_Offset: {x: 0, y: 0}
    - unity_LightmapsInd:
        m_Texture: {fileID: 0}
        m_Scale: {x: 1, y: 1}
        m_Offset: {x: 0, y: 0}
    - unity_ShadowMasks:
        m_Texture: {fileID: 0}
        m_Scale: {x: 1, y: 1}
        m_Offset: {x: 0, y: 0}
    m_Floats:
    - Vector1_6d8258ffb5fe442e9a66a2c0f65412dc: 1
    - _AO: 0
    - _EmissiveStr: 0
    - _Metallic: 0
    - _Smoothness: 0
    m_Colors: []
  m_BuildTextureStacks: []
