%YAML 1.1
%TAG !u! tag:unity3d.com,2011:
--- !u!21 &2100000
Material:
  serializedVersion: 6
  m_ObjectHideFlags: 0
  m_CorrespondingSourceObject: {fileID: 0}
  m_PrefabInstance: {fileID: 0}
  m_PrefabAsset: {fileID: 0}
  m_Name: Ice_Chunk_Rigidbody
  m_Shader: {fileID: -6465566751694194690, guid: 8f30d2aaa28ccfb47beaadcb4264ee7a, type: 3}
  m_ShaderKeywords: 
  m_LightmapFlags: 4
  m_EnableInstancingVariants: 0
  m_DoubleSidedGI: 0
  m_CustomRenderQueue: -1
  stringTagMap: {}
  disabledShaderPasses: []
  m_SavedProperties:
    serializedVersion: 3
    m_TexEnvs:
    - Mask_:
        m_Texture: {fileID: 2800000, guid: 4f7e80f3ef55d7241be0429c8112ca9e, type: 3}
        m_Scale: {x: 1, y: 1}
        m_Offset: {x: 0, y: 0}
    - Texture2D_19c1837a251a436e9e801545efd0709c:
        m_Texture: {fileID: 0}
        m_Scale: {x: 1, y: 1}
        m_Offset: {x: 0, y: 0}
    - Texture2D_7d2a45ddb81043449ecbc3e7da7c32c0:
        m_Texture: {fileID: 2800000, guid: e231e4c02c48ee14aafa55f7b1a843c1, type: 3}
        m_Scale: {x: 1, y: 1}
        m_Offset: {x: 0, y: 0}
    - Texture2D_b9a64b702fde4962b04a994373210e28:
        m_Texture: {fileID: 0}
        m_Scale: {x: 1, y: 1}
        m_Offset: {x: 0, y: 0}
    - Texture2D_c3b502ba61714eb682f78ca7d082dd80:
        m_Texture: {fileID: 2800000, guid: 5015e326175043e4494b3f825b9cbeab, type: 3}
        m_Scale: {x: 1, y: 1}
        m_Offset: {x: 0, y: 0}
    - _M_S_AO:
        m_Texture: {fileID: 0}
        m_Scale: {x: 1, y: 1}
        m_Offset: {x: 0, y: 0}
    - unity_Lightmaps:
        m_Texture: {fileID: 0}
        m_Scale: {x: 1, y: 1}
        m_Offset: {x: 0, y: 0}
    - unity_LightmapsInd:
        m_Texture: {fileID: 0}
        m_Scale: {x: 1, y: 1}
        m_Offset: {x: 0, y: 0}
    - unity_ShadowMasks:
        m_Texture: {fileID: 0}
        m_Scale: {x: 1, y: 1}
        m_Offset: {x: 0, y: 0}
    m_Floats:
    - Boolean_aa7fdd4f67dd4c5bac4236b18bb1fdaf: 1
    - Boolean_b68a3f1717c144f5b1a7a3be1078581a: 0
    - Color_Variance_Sharpness_: 1
    - IsEmissive_: 1
    - Metallic_: 0.724
    - Smootheness_: 0.518
    - Vector1_0346c0e3340243a88ac556a5d82d591a: 1.02
    - Vector1_064e6521da794a9c9976c558b3372ee3: 0.42
    - Vector1_4137a7fc3d2f4606aa1261ce87ab27e9: -0.1
    - Vector1_43f6bf97ab8b4cf4934a5b1558f1bcf1: 1
    - Vector1_533bcdb591a046c29fb5cb75f0640e61: 0.2
    - Vector1_815ee0ec988a4d25992824c344d3e3a1: 0.5
    - Vector1_8e03315123be4c76bf401086ce6fa19e: 0
    - Vector1_9f672af4400b4baab305ec7aed5470d5: 0
    - Vector1_de4c80672825400f83840b461e60507c: 1
    - Vector1_f4b977dab0534d38af9158b08e3d9067: 0
    - _AO_Intensity: 1
    - _Mask_Fresnel_ByEmissiveMask: 1
    - _Up_Glow_Position: 0.715
    m_Colors:
    - Color_A_: {r: 0.61960787, g: 0.9055595, b: 1, a: 1}
    - Color_A_Emission_: {r: 0.7688679, g: 0.8501922, b: 1, a: 1}
    - Color_af47ba0ed1104a74a08fbba8bbd2b9b4: {r: 0, g: 1.388235, b: 1.960784, a: 1}
    - Vector2_3c48509baf4742939eee9018d9d8ce1d: {r: 0, g: 0, b: 0, a: 0}
    - Vector2_8ff0addd0bfb45ea865452a9474fe283: {r: 1, g: 1, b: 0, a: 0}
    - Vector2_de1dcbfcbb9e4cdbaea136ebcb6d8c48: {r: 0.28, g: 0.3, b: 0, a: 0}
    - Vector2_e98b13d447a445548c560c074909b7c5: {r: 1, g: 1, b: 0, a: 0}
  m_BuildTextureStacks: []
